Archief tabel bevat 179124 records met de volgende bestands typen:
GEEN; 38
.doc; 12784
.htm; 628
.pdf; 156946
.txt; 447
.rtf; 529
.jpg; 206
.docx; 5349
.mht; 6
.zip; 1849
.xls; 186
. brieven aaaaaaaaa\casnr ##### a+a; #
.tif; 5
.msg; 69
.dot; 3
.docm; 8
.jpeg; 19
.png; 7
.xps; 15
.xlsx; 16
.odt; 2
. de bree; 3
. aaaaaaaa geb ##-##-####; #
.url; 2
.bmp; 1